[
  {
    "id": 1,
    "channelId": 1,
    "author": {
      "id": 1,
      "isOnline": true,
      "name": "Маяковский Вова",
      "avatar": null
    },
    "isRead": false,
    "text": "И вот, значит, достаю я из штанин свою паспортину",
    "createdAt": "2023-02-14T16:33:39.052Z",
    "attachments": []
  },
  {
    "id": 2,
    "channelId": 1,
    "author": {
      "id": 1,
      "isOnline": true,
      "name": "Маяковский Вова",
      "avatar": null
    },
    "isRead": false,
    "text": "И вот, значит, достаю я из штанин свою паспортину",
    "createdAt": "2023-02-14T16:33:39.052Z",
    "attachments": []
  },
  {
    "id": 3,
    "channelId": 1,
    "author": {
      "id": 1,
      "isOnline": true,
      "name": "Маяковский Вова",
      "avatar": null
    },
    "isRead": false,
    "text": "И вот, значит, достаю я из штанин свою паспортину",
    "createdAt": "2023-02-14T16:33:39.052Z",
    "attachments": []
  },
  {
    "id": 5,
    "channelId": 1,
    "author": {
      "id": 1,
      "isOnline": true,
      "name": "Маяковский Вова",
      "avatar": null
    },
    "isRead": false,
    "text": "И вот, значит, достаю я из штанин свою паспортину",
    "createdAt": "2023-02-14T16:33:39.052Z",
    "attachments": []
  },
  {
    "id": 4,
    "channelId": 1,
    "author": {
      "id": 1,
      "isOnline": true,
      "name": "Маяковский Вова",
      "avatar": null
    },
    "isRead": false,
    "text": "И вот, значит, достаю я из штанин свою паспортину",
    "createdAt": "2023-02-14T16:33:39.052Z",
    "attachments": []
  },
  {
    "id": 6,
    "channelId": 1,
    "author": {
      "id": 1,
      "isOnline": true,
      "name": "Маяковский Вова",
      "avatar": null
    },
    "isRead": false,
    "text": "И вот, значит, достаю я из штанин свою паспортину",
    "createdAt": "2023-02-14T16:33:39.052Z",
    "attachments": []
  },
  {
    "id": 7,
    "channelId": 1,
    "author": {
      "id": 1,
      "isOnline": true,
      "name": "Маяковский Вова",
      "avatar": null
    },
    "isRead": false,
    "text": "И вот, значит, достаю я из штанин свою паспортину",
    "createdAt": "2023-02-14T16:33:39.052Z",
    "attachments": []
  },
  {
    "id": 8,
    "channelId": 1,
    "author": {
      "id": 1,
      "isOnline": true,
      "name": "Маяковский Вова",
      "avatar": null
    },
    "isRead": false,
    "text": "И вот, значит, достаю я из штанин свою паспортину",
    "createdAt": "2023-02-14T16:33:39.052Z",
    "attachments": []
  },
  {
    "id": 9,
    "channelId": 1,
    "author": {
      "id": 1,
      "isOnline": true,
      "name": "Маяковский Вова",
      "avatar": null
    },
    "isRead": false,
    "text": "И вот, значит, достаю я из штанин свою паспортину",
    "createdAt": "2023-02-14T16:33:39.052Z",
    "attachments": []
  },
  {
    "id": 10,
    "channelId": 1,
    "author": {
      "id": 1,
      "isOnline": true,
      "name": "Маяковский Вова",
      "avatar": null
    },
    "isRead": false,
    "text": "И вот, значит, достаю я из штанин свою паспортину",
    "createdAt": "2023-02-14T16:33:39.052Z",
    "attachments": []
  },
  {
    "id": 11,
    "channelId": 1,
    "author": {
      "id": 1,
      "isOnline": true,
      "name": "Маяковский Вова",
      "avatar": null
    },
    "isRead": false,
    "text": "И вот, значит, достаю я из штанин свою паспортину",
    "createdAt": "2023-02-14T16:33:39.052Z",
    "attachments": []
  },
  {
    "id": 12,
    "channelId": 1,
    "author": {
      "id": 1,
      "isOnline": true,
      "name": "Маяковский Вова",
      "avatar": null
    },
    "isRead": false,
    "text": "🧑‍🎄И вот, значит, достаю я из штанин свою паспортину",
    "createdAt": "2023-02-14T16:33:39.052Z",
    "attachments": []
  }
]
