[
  {
    "id": 1,
    "ownerId": 0,
    "notReadMessages": 1,
    "user": {
      "id": 1,
      "isOnline": true,
      "name": "Маяковский Вова"
    },
    "lastMessage": {
      "channelId": 1,
      "authorId": 1,
      "isRead": false,
      "text": "И вот, значит, достаю я из штанин свою паспортину",
      "createdAt": "2023-02-14T16:33:39.052Z",
      "attachments": []
    },
    "messages": [
      {
        "channelId": 1,
        "author": {
          "id": 1,
          "isOnline": true,
          "name": "Маяковский Вова",
          "avatar": null
        },
        "isRead": false,
        "text": "И вот, значит, достаю я из штанин свою паспортину",
        "createdAt": "2023-02-14T16:33:39.052Z",
        "attachments": []
      }
    ]
  }
]
